{
    "/js/core.js": "/js/core.js?id=6af4dc8ea0ae84c94c5c",
    "/css/ltr-core.css": "/css/ltr-core.css?id=6a39288549f16d7bf56a",
    "/images/favicon.ico": "/images/favicon.ico?id=11c0f9ea2d0cf09b10a8"
}
